<?xml version="1.0" encoding="UTF-8"?>
<svg width="46px" height="51px" viewBox="0 0 46 51" version="1.1" xmlns="http://www.w3.org/2000/svg" xmlns:xlink="http://www.w3.org/1999/xlink">
    <title>0FB1182C-6A43-4331-A392-055C74C31DC1</title>
    <g id="Page-1" stroke="none" stroke-width="1" fill="none" fill-rule="evenodd">
        <g id="Profile" transform="translate(-19.000000, -39.000000)">
            <g id="ic_user" transform="translate(19.000000, 39.000000)">
                <path d="M15.9979692,28.2041385 C16.4190462,28.2041385 16.7938154,28.4292154 17.0382769,28.7738308 C18.3295077,30.5949077 20.4488923,31.7741385 22.8493538,31.7741385 C25.2487385,31.7741385 27.3692,30.5949077 28.6604308,28.7738308 C28.9038154,28.4292154 29.2796615,28.2041385 29.7007385,28.2041385 L29.7039692,28.2041385 C35.7756615,28.2041385 40.6982769,33.1267538 40.6982769,39.1984462 L40.6982769,44.2147538 C40.6982769,45.2302923 39.8755077,46.0530615 38.8599692,46.0530615 L6.83873846,46.0530615 C5.8232,46.0530615 5.00043077,45.2302923 5.00043077,44.2147538 L5.00043077,39.1984462 C5.00043077,33.1267538 9.92304615,28.2041385 15.9958154,28.2041385 L15.9979692,28.2041385 Z" id="Fill-1" fill="#FF954D"></path>
                <path d="M22.8491385,22.8494615 L22.8491385,22.8494615 C18.9065231,22.8494615 15.7102154,19.6520769 15.7102154,15.7094615 L15.7102154,12.1394615 C15.7102154,8.19684615 18.9065231,4.99946154 22.8491385,4.99946154 C26.7928308,4.99946154 29.9891385,8.19684615 29.9891385,12.1394615 L29.9891385,15.7094615 C29.9891385,19.6520769 26.7928308,22.8494615 22.8491385,22.8494615 Z" id="Stroke-3" stroke="#414042" stroke-width="4.001" stroke-linecap="round" stroke-linejoin="round"></path>
                <path d="M15.9979692,28.2041385 C16.4190462,28.2041385 16.7938154,28.4292154 17.0382769,28.7738308 C18.3295077,30.5949077 20.4488923,31.7741385 22.8493538,31.7741385 C25.2487385,31.7741385 27.3692,30.5949077 28.6604308,28.7738308 C28.9038154,28.4292154 29.2796615,28.2041385 29.7007385,28.2041385 L29.7039692,28.2041385 C35.7756615,28.2041385 40.6982769,33.1267538 40.6982769,39.1984462 L40.6982769,44.2147538 C40.6982769,45.2302923 39.8755077,46.0530615 38.8599692,46.0530615 L6.83873846,46.0530615 C5.8232,46.0530615 5.00043077,45.2302923 5.00043077,44.2147538 L5.00043077,39.1984462 C5.00043077,33.1267538 9.92304615,28.2041385 15.9958154,28.2041385 L15.9979692,28.2041385 Z" id="Stroke-5" stroke="#414042" stroke-width="4.001" stroke-linecap="round" stroke-linejoin="round"></path>
            </g>
        </g>
    </g>
</svg>