[
  {
    "id": 3,
    "title": "Совмещенный оптико-электронный датчик",
    "subTitle": "ИКА (совмещеный: АК канал 1 + ИК канал 2)",
    "img": "astra_8",
    "icon": "ic_astra_8",
    "detectorTypes": [
      {
        "id": 4,
        "title": "Автоматическая охранная сигнализация",
        "sectionMask": 3,
        "alartTypes": []
      }
    ]
  },
  {
    "id": 4,
    "title": "Датчик протечки",
    "subTitle": "ДУВ - датчик утечки воды Астра-361",
    "img": "astra_361",
    "icon": "ic_astra_361",
    "detectorTypes": [
      {
        "id": 5,
        "title": "Технологическая сигнализация",
        "sectionMask": 16,
        "alartTypes": []
      },
      {
        "id": 6,
        "title": "Телеметрическое оборудование",
        "sectionMask": 16,
        "alartTypes": []
      }
    ]
  },
  {
    "id": 5,
    "title": "Датчик температуры",
    "subTitle": "Температурный датчик Астра-3731",
    "img": "astra_3731",
    "icon": "ic_astra_3731",
    "detectorTypes": [
      {
        "id": 1,
        "title": "Пожарная сигнализация",
        "sectionMask": 4,
        "alartTypes": []
      },
      {
        "id": 3,
        "title": "Медицинская сигнализация",
        "sectionMask": 2,
        "alartTypes": []
      },
      {
        "id": 3,
        "title": "Технологическая сигнализация",
        "sectionMask": 2,
        "alartTypes": []
      },
      {
        "id": 6,
        "title": "Телеметрическое оборудование",
        "sectionMask": 16,
        "alartTypes": []
      }
    ]
  },
  {
    "id": 7,
    "title": "Тревожная кнопка",
    "subTitle": "Тревожная кнопка с контролем канала",
    "img": "astra_3221",
    "icon": "",
    "detectorTypes": [
      {
        "id": 2,
        "title": "Тревожная сигнализация",
        "sectionMask": 2,
        "alartTypes": []
      },
      {
        "id": 3,
        "title": "Медицинская сигнализация",
        "sectionMask": 2,
        "alartTypes": []
      }
    ]
  },
  {
    "id": 8,
    "title": "Брелок",
    "subTitle": "Кнопки тревожной сигнализации без контроля канала Астра РИМ-РПДК",
    "img": "astra_rpdk",
    "icon": "",
    "detectorTypes": [
      {
        "id": 2,
        "title": "Тревожная сигнализация",
        "sectionMask": 2,
        "alartTypes": []
      },
      {
        "id": 3,
        "title": "Медицинская сигнализация",
        "sectionMask": 2,
        "alartTypes": []
      }
    ]
  },
  {
    "id": 10,
    "title": "Датчик разбития стекла",
    "subTitle": "АК - разбития стекла Астра-6131",
    "img": "astra_6131",
    "icon": "ic_astra_6131",
    "detectorTypes": [
      {
        "id": 4,
        "title": "Автоматическая охранная сигнализация",
        "sectionMask": 3,
        "alartTypes": []
      }
    ]
  },
  {
    "id": 11,
    "title": "Датчик открытия",
    "subTitle": "СМК - извещатель магнитоконтактный Астра-3321",
    "img": "astra_3321",
    "icon": "ic_astra_3321",
    "detectorTypes": [
      {
        "id": 1,
        "title": "Пожарная сигнализация",
        "sectionMask": 4,
        "alartTypes": []
      },
      {
        "id": 2,
        "title": "Тревожная сигнализация",
        "sectionMask": 2,
        "alartTypes": []
      },
      {
        "id": 3,
        "title": "Медицинская сигнализация",
        "sectionMask": 19,
        "alartTypes": []
      },
      {
        "id": 4,
        "title": "Автоматическая охранная сигнализация",
        "sectionMask": 3,
        "alartTypes": []
      },
      {
        "id": 5,
        "title": "Технологическая сигнализация",
        "sectionMask": 16,
        "alartTypes": []
      },
      {
        "id": 6,
        "title": "Телеметрическое оборудование",
        "sectionMask": 16,
        "alartTypes": []
      }
    ]
  },
  {
    "id": 12,
    "title": "Датчик движения",
    "subTitle": "ИК - извещатель обнаружения движения Астра-5131",
    "img": "astra_5131",
    "icon": "ic_astra_5131",
    "detectorTypes": [
      {
        "id": 4,
        "title": "Автоматическая охранная сигнализация",
        "sectionMask": 3,
        "alartTypes": []
      },
      {
        "id": 6,
        "title": "Телеметрическое оборудование",
        "sectionMask": 16,
        "alartTypes": []
      }
    ]
  },
  {
    "id": 13,
    "title": "Датчик дыма",
    "subTitle": "Извещатель пожарный дымовой Астра-421",
    "img": "astra_421",
    "icon": "ic_astra_421",
    "detectorTypes": [
      {
        "id": 1,
        "title": "Пожарная сигнализация",
        "sectionMask": 4,
        "alartTypes": []
      }
    ]
  },
  {
    "id": 15,
    "title": "Клавиатура",
    "subTitle": "Клавиатура Астра-8121",
    "img": "astra_8131",
    "icon": "",
    "detectorTypes": []
  },
  {
    "id": 2331,
    "title": "Светозвуковой оповещатель",
    "subTitle": "Светозвуковой извещатель Астра-2331",
    "img": "astra_2331",
    "icon": "ic_astra_2331",
    "detectorTypes": []
  },
  {
    "id": 8131,
    "title": "Клавиатура",
    "subTitle": "Клавиатура Астра-8131",
    "img": "astra_8131",
    "icon": "_astra_keypad",
    "detectorTypes": []
  },
  {
    "id": 8531,
    "title": "RFID-считыватель",
    "subTitle": "RFID-считыватель Астра-8531",
    "img": "astra_8531",
    "icon": "",
    "detectorTypes": []
  },
  {
    "id": 8231,
    "title": "Радиоканальное реле",
    "subTitle": "Радиоканальное реле Астра-8231",
    "img": "astra_8231",
    "icon": "ic_astra_8231",
    "detectorTypes": []
  },
  {
    "id": 8731,
    "title": "Умная розетка",
    "subTitle": "Умная розетка Астра-8731",
    "img": "astra_8731",
    "icon": "",
    "detectorTypes": []
  },
  {
    "id": 421,
    "title": "Датчик дыма",
    "subTitle": "Извещатель пожарный дымовой Астра-421 РК2",
    "img": "astra_421rk2",
    "icon": "",
    "detectorTypes": []
  },
  {
    "id": 4511,
    "title": "Пожарная тревожная кнопка",
    "subTitle": "Извещатель пожарный ручной Астра-4511",
    "img": "astra_4511",
    "icon": "",
    "detectorTypes": []
  }
]