{
  "xml": {
    "companies": {
      "company": [
        {
          "-caption": "DELTA Системы Безопасности",
          "-logo": "@drawable/ic_sec_delta",
          "-message": "ДЕЛЬТА \u2014 организуем охрану имущества, недвижимости и авто, уделяя максимальное внимание каждому клиенту",
          "departs": {
            "depart": [
              {
                "-subject": "Волгоградская область",
                "-center": "Волгоград",
                "rcs": {
                  "rc": [{
                    "-caption": "РЦ Волгоград",
                    "-city": "Волгоград",
                    "phones": {
                      "-length": "1",
                      "string": ["+7 844 225 1461"]
                    },
                    "sites": {
                      "-length": "1",
                      "string": "http://vlg.delta.ru"
                    }
                  }]
                }
              },
              {
                "-subject": "Воронежская область",
                "-center": "Воронеж",
                "rcs": {
                  "rc": [{
                    "-caption": "РЦ Воронеж",
                    "-city": "Воронеж",
                    "phones": {
                      "-length": "1",
                      "string": ["+7 473 202 0288"]
                    },
                    "sites": {
                      "-length": "1",
                      "string": "http://vrn.delta.ru"
                    }
                  }]
                }
              },
              {
                "-subject": "г. Москва",
                "-center": "Москва",
                "rcs": {
                  "rc": [{
                    "-caption": "РЦ Москва",
                    "-city": "Москва",
                    "phones": {
                      "-length": "1",
                      "string": ["+7 495 777 4147"]
                    },
                    "sites": {
                      "-length": "1",
                      "string": "http://delta.ru"
                    }
                  }]
                }
              },
              {
                "-subject": "Калужская область",
                "-center": "Волгоград",
                "rcs": {
                  "rc": [{
                    "-caption": "РЦ Калуга",
                    "-city": "Калуга",
                    "phones": {
                      "-length": "1",
                      "string": ["+7 484 227 7200"]
                    },
                    "sites": {
                      "-length": "1",
                      "string": "http://klg.delta.ru"
                    }
                  }]
                }
              },
              {
                "-subject": "Кемеровская область",
                "-center": "Кемерово",
                "rcs": {
                  "rc": [{
                    "-caption": "РЦ Новокузнецк",
                    "-city": "Новокузнецк",
                    "phones": {
                      "-length": "1",
                      "string": ["+7 384 320 0384"]
                    },
                    "sites": {
                      "-length": "1",
                      "string": "http://nvk.delta.ru"
                    }
                  }]
                }
              },
              {
                "-subject": "Волгоградская область",
                "-center": "Волгоград",
                "rcs": {
                  "rc": [{
                    "-caption": "РЦ Волгоград",
                    "-city": "Волгоград",
                    "phones": {
                      "-length": "1",
                      "string": ["+7 844 225 1461"]
                    },
                    "sites": {
                      "-length": "1",
                      "string": "http://vlg.delta.ru"
                    }
                  }]
                }
              },
              {
                "-subject": "Краснодарский край",
                "-center": "Краснодар",
                "rcs": {
                  "rc": [
                    {
                      "-caption": "РЦ Краснодар",
                      "-city": "Краснодар",
                      "phones": {
                        "-length": "1",
                        "string": ["+7 861 212 5566"]
                      },
                      "sites": {
                        "-length": "1",
                        "string": "http://krr.delta.ru"
                      }
                    },
                    {
                      "-caption": "РЦ Сочи",
                      "-city": "Сочи",
                      "phones": {
                        "-length": "1",
                        "string": ["+7 862 298 9090"]
                      },
                      "sites": {
                        "-length": "1",
                        "string": "http://sochi.delta.ru"
                      }
                    }
                  ]
                }
              },
              {
                "-subject": "Курганская область",
                "-center": "Курган",
                "rcs": {
                  "rc": [{
                    "-caption": "РЦ Курган",
                    "-city": "Курган",
                    "phones": {
                      "-length": "1",
                      "string": ["+7 352 265 5555"]
                    },
                    "sites": {
                      "-length": "1",
                      "string": "http://kgn.delta.ru"
                    }
                  }]
                }
              },
              {
                "-subject": "Курская область",
                "-center": "Курск",
                "rcs": {
                  "rc": [{
                    "-caption": "РЦ Курск",
                    "-city": "Курск",
                    "phones": {
                      "-length": "1",
                      "string": ["+7 471 254 0777"]
                    },
                    "sites": {
                      "-length": "1",
                      "string": "http://urs.delta.ru"
                    }
                  }]
                }
              },
              {
                "-subject": "г. Санкт-Петербург",
                "-center": "Санкт-Петербург",
                "rcs": {
                  "rc": [{
                    "-caption": "РЦ Санкт-Петербург",
                    "-city": "Санкт-Петербург",
                    "phones": {
                      "-length": "1",
                      "string": ["+7 812 323 2222"]
                    },
                    "sites": {
                      "-length": "1",
                      "string": "http://spb.delta.ru"
                    }
                  }]
                }
              },
              {
                "-subject": "Ленинградская область",
                "-center": "Санкт-Петербург",
                "rcs": {
                  "rc": [{
                    "-caption": "РЦ Санкт-Петербург",
                    "-city": "Санкт-Петербург",
                    "phones": {
                      "-length": "1",
                      "string": ["+7 812 323 2222"]
                    },
                    "sites": {
                      "-length": "1",
                      "string": "http://spb.delta.ru"
                    }
                  }]
                }
              },
              {
                "-subject": "Липецкая область",
                "-center": "Липецк",
                "rcs": {
                  "rc": [{
                    "-caption": "РЦ Липецк",
                    "-city": "Липецк",
                    "phones": {
                      "-length": "1",
                      "string": ["+7 474 255 1111"]
                    },
                    "sites": {
                      "-length": "1",
                      "string": "http://lpk.delta.ru"
                    }
                  }]
                }
              },
              {
                "-subject": "Московская область",
                "-center": "Москва",
                "rcs": {
                  "rc": [{
                    "-caption": "РЦ Москва",
                    "-city": "Москва",
                    "phones": {
                      "-length": "1",
                      "string": ["+7 495 777 4147"]
                    },
                    "sites": {
                      "-length": "1",
                      "string": "http://delta.ru"
                    }
                  }]
                }
              },
              {
                "-subject": "Нижегородская область",
                "-center": "Нижний Новгород",
                "rcs": {
                  "rc": [{
                    "-caption": "РЦ Нижний Новгород",
                    "-city": "Нижний Новгород",
                    "phones": {
                      "-length": "1",
                      "string": ["+7 831 217 1788"]
                    },
                    "sites": {
                      "-length": "1",
                      "string": "http://nn.delta.ru"
                    }
                  }]
                }
              },
              {
                "-subject": "Новосибирская область",
                "-center": "Новосибириск",
                "rcs": {
                  "rc": [{
                    "-caption": "РЦ Новосибирск",
                    "-city": "Новосибирск",
                    "phones": {
                      "-length": "1",
                      "string": ["+7 383 285 0005"]
                    },
                    "sites": {
                      "-length": "1",
                      "string": "http://nsk.delta.ru"
                    }
                  }]
                }
              },
              {
                "-subject": "Омская область",
                "-center": "Омск",
                "rcs": {
                  "rc": [{
                    "-caption": "РЦ Омск",
                    "-city": "Омск",
                    "phones": {
                      "-length": "1",
                      "string": ["+7 381 230 9200"]
                    },
                    "sites": {
                      "-length": "1",
                      "string": "http://omsk.delta.ru"
                    }
                  }]
                }
              },
              {
                "-subject": "Пермский край",
                "-center": "Пермь",
                "rcs": {
                  "rc": [{
                    "-caption": "РЦ Пермь",
                    "-city": "Пермь",
                    "phones": {
                      "-length": "1",
                      "string": ["+7 342 207 1111"]
                    },
                    "sites": {
                      "-length": "1",
                      "string": "http://prm.delta.ru"
                    }
                  }]
                }
              },
              {
                "-subject": "Республика Башкортостан",
                "-center": "Уфа",
                "rcs": {
                  "rc": [{
                    "-caption": "РЦ Уфа",
                    "-city": "Уфа",
                    "phones": {
                      "-length": "1",
                      "string": ["+7 347 224 6710"]
                    },
                    "sites": {
                      "-length": "1",
                      "string": "http://ufa.delta.ru"
                    }
                  }]
                }
              },
              {
                "-subject": "Республика Татарстан",
                "-center": "Казань",
                "rcs": {
                  "rc": [
                    {
                      "-caption": "РЦ Казань",
                      "-city": "Казань",
                      "phones": {
                        "-length": "1",
                        "string": ["+7 843 211 7733"]
                      },
                      "sites": {
                        "-length": "1",
                        "string": "http://kzn.delta.ru"
                      }
                    },
                    {
                      "-caption": "РЦ Закамье",
                      "-city": "Набережные Челны",
                      "phones": {
                        "-length": "1",
                        "string": ["+7 855 292 3502"]
                      },
                      "sites": {
                        "-length": "1",
                        "string": "http://chelny.delta.ru"
                      }
                    }
                  ]
                }
              },
              {
                "-subject": "Ростовская область",
                "-center": "Ростов-на-Дону",
                "rcs": {
                  "rc": [{
                    "-caption": "РЦ Ростов-на-Дону",
                    "-city": "Ростов-на-Дону",
                    "phones": {
                      "-length": "1",
                      "string": ["+7 863 296 3207"]
                    },
                    "sites": {
                      "-length": "1",
                      "string": "http://rnd.delta.ru"
                    }
                  }]
                }
              },
              {
                "-subject": "Самарская область",
                "-center": "Самара",
                "rcs": {
                  "rc": [
                    {
                      "-caption": "РЦ Самара",
                      "-city": "Самара",
                      "phones": {
                        "-length": "1",
                        "string": ["+7 846 250 0800"]
                      },
                      "sites": {
                        "-length": "1",
                        "string": "http://smr.delta.ru"
                      }
                    },
                    {
                      "-caption": "РЦ Самара",
                      "-city": "Тольятти",
                      "phones": {
                        "-length": "1",
                        "string": ["+7 848 277 8855"]
                      },
                      "sites": {
                        "-length": "1",
                        "string": "http://tlt.delta.ru"
                      }
                    }
                  ]
                }
              },
              {
                "-subject": "Саратовская область",
                "-center": "Саратов",
                "rcs": {
                  "rc": [{
                    "-caption": "РЦ Саратов",
                    "-city": "Саратов",
                    "phones": {
                      "-length": "1",
                      "string": ["+7 845 233 8777"]
                    },
                    "sites": {
                      "-length": "1",
                      "string": "http://sar.delta.ru"
                    }
                  }]
                }
              },
              {
                "-subject": "Свердловская область",
                "-center": "Екатеринбург",
                "rcs": {
                  "rc": [{
                    "-caption": "РЦ Екатеринбург",
                    "-city": "Екатеринбург",
                    "phones": {
                      "-length": "1",
                      "string": ["+7 343 226 0000"]
                    },
                    "sites": {
                      "-length": "1",
                      "string": "http://ekb.delta.ru"
                    }
                  }]
                }
              },
              {
                "-subject": "Смоленская область",
                "-center": "Смоленск",
                "rcs": {
                  "rc": [{
                    "-caption": "РЦ Смоленск",
                    "-city": "Смоленск",
                    "phones": {
                      "-length": "1",
                      "string": ["+7 481 220 0800"]
                    },
                    "sites": {
                      "-length": "1",
                      "string": "http://sml.delta.ru"
                    }
                  }]
                }
              },
              {
                "-subject": "Тамбовская область",
                "-center": "Тамбов",
                "rcs": {
                  "rc": [{
                    "-caption": "РЦ Тамбов",
                    "-city": "Тамбов",
                    "phones": {
                      "-length": "1",
                      "string": ["+7 475 277 0011"]
                    },
                    "sites": {
                      "-length": "1",
                      "string": "http://tmb.delta.ru"
                    }
                  }]
                }
              },
              {
                "-subject": "Тульская область",
                "-center": "Тула",
                "rcs": {
                  "rc": [{
                    "-caption": "РЦ Тула",
                    "-city": "Тула",
                    "phones": {
                      "-length": "1",
                      "string": ["+7 487 224 9292"]
                    },
                    "sites": {
                      "-length": "1",
                      "string": "http://tula.delta.ru"
                    }
                  }]
                }
              },
              {
                "-subject": "Тюменская область",
                "-center": "Тюмень",
                "rcs": {
                  "rc": [{
                    "-caption": "РЦ Тюмень",
                    "-city": "Тюмень",
                    "phones": {
                      "-length": "1",
                      "string": ["+7 345 221 5555"]
                    },
                    "sites": {
                      "-length": "1",
                      "string": "http://tmn.delta.ru"
                    }
                  }]
                }
              },
              {
                "-subject": "Челябинская область",
                "-center": "Челябинск",
                "rcs": {
                  "rc": [
                    {
                      "-caption": "РЦ Челябинск",
                      "-city": "Челябинск",
                      "phones": {
                        "-length": "1",
                        "string": ["+7 351 222 1111"]
                      },
                      "sites": {
                        "-length": "1",
                        "string": "http://chb.delta.ru"
                      }
                    },
                    {
                      "-caption": "РЦ Магнитогорск",
                      "-city": "Магнитогорск",
                      "phones": {
                        "-length": "1",
                        "string": ["+7 351 949 6750"]
                      },
                      "sites": {
                        "-length": "1",
                        "string": "http://mgn.delta.ru"
                      }
                    }
                  ]
                }
              },
              {
                "-subject": "Ярославская область",
                "-center": "Ярославль",
                "rcs": {
                  "rc": [{
                    "-caption": "РЦ Ярославль",
                    "-city": "Ярославль",
                    "phones": {
                      "-length": "1",
                      "string": ["+7 485 258 4584"]
                    },
                    "sites": {
                      "-length": "1",
                      "string": "http://yar.delta.ru"
                    }
                  }]
                }
              }
            ]
          }
        },
        {
          "-caption": "ООО «ОА «Шериф-Безопасность»",
          "-logo": "@drawable/ic_sec_sherif",
          "addresses": {
            "-length": "2",
            "string": [
              "г. Березники, ул. Юбилейная, 127. Бизнес центр \"НЭО\", 2 этаж, офис 210",
              "г. Соликамск, ул. Советская, 56/2, офис 23"
            ]
          },
          "phones": {
            "-length": "2",
            "string": [
              "+7 3424 290 161",
              "+7 3425 370 826"
            ]
          },
          "emails": {
            "-length": "1",
            "string": "sheriff@uralkali.com"
          },
          "sites": {
            "-length": "1",
            "string": "http://www.sheriff-ural.com/"
          }
        },
        {
          "-caption": "ТОО «СОКОЛ СЕКЬЮРИТИ СЕРВИС»",
          "-logo": "@drawable/ic_sec_too_sokol",
          "addresses": {
            "-length": "1",
            "string": ["г.Нур-Султан, ул.Досмухаммедулы, д.1, оф. 17"]
          },
          "phones": {
            "-length": "2",
            "string": [
              "+7 707 1026 060",
              "+7 707 1036 060"
            ]
          },
          "emails": {
            "-length": "1",
            "string": "sokol.security@mail.ru"
          },
          "sites": {
            "-length": "1",
            "string": "http://www.sokol-secur.kz/"
          }
        },
        {
          "-caption": "ГК Тигр",
          "-logo": "@drawable/ic_sec_tigr",
          "addresses": {
            "-length": "1",
            "string": ["Казань, ул. Петербургская,   д. 25В, пом. 5"]
          },
          "phones": {
            "-length": "1",
            "string": ["+7 987 296 1986"]
          },
          "emails": {
            "-length": "1",
            "string": "tender@gk-tigr.ru"
          },
          "sites": {
            "-length": "1",
            "string": "http://gk-tigr.ru"
          }
        },
        {
          "-caption": "ИП Давидянц Арсен Сергеевич",
          "-logo": "@drawable/ic_sec_davidyan",
          "addresses": {
            "-length": "1",
            "string": ["г. Владикавказ, ул. А. Кесаева, д.4"]
          },
          "phones": {
            "-length": "1",
            "string": ["+7 988 835 14 08"]
          },
          "emails": {
            "-length": "1",
            "string": "ars68@mail.ru"
          }
        },
        {
          "-caption": "Некоммерческое партнерство «Комплексные системы безопасности»",
          "-logo": "@drawable/ic_sec_ksb",
          "addresses": {
            "-length": "1",
            "string": ["г. Владикавказ, ул. Калоева, д. 412"]
          },
          "phones": {
            "-length": "1",
            "string": ["+7 8672 40 35 94"]
          },
          "emails": {
            "-length": "1",
            "string": "csb2010@mail.ru"
          },
          "sites": {
            "-length": "1",
            "string": "http://ksb-rso.ru/"
          }
        },
        {
          "-caption": "НТ ЗАО «Аларм»",
          "-logo": "@drawable/ic_sec_alarm",
          "addresses": {
            "-length": "1",
            "string": ["Беларусь, г. Минск, ул. Ф.Скорины, д. 51, лит. Ж, к., оф. 308А"]
          },
          "phones": {
            "-length": "1",
            "string": ["+375 17 285 94 01"]
          },
          "emails": {
            "-length": "1",
            "string": "alarm@alarm.by"
          },
          "sites": {
            "-length": "1",
            "string": "http://alarm.by/"
          }
        },
        {
          "-caption": "ООО «Авангард-СБ»",
          "-logo": "@drawable/ic_sec_avangardsb",
          "addresses": {
            "-length": "1",
            "string": ["г. Кемерово, Кузнецкий проспект, д. 103 к. а, оф. 304"]
          },
          "phones": {
            "-length": "1",
            "string": ["+7 3842 28 02 11"]
          },
          "sites": {
            "-length": "1",
            "string": "http://avangardsb42.ru"
          }
        },
        {
          "-caption": "ООО «Альф-Сервис Групп»»",
          "-logo": "@drawable/ic_sec_alf",
          "addresses": {
            "-length": "1",
            "string": ["г. Москва, ул. Рогова, д. 15, корп. 1, комната 15"]
          },
          "phones": {
            "-length": "1",
            "string": ["+7 495 979 11 15"]
          },
          "emails": {
            "-length": "1",
            "string": "support@alfservice.ru"
          },
          "sites": {
            "-length": "1",
            "string": "http://www.alfservice.ru/"
          }
        },
        {
          "-caption": "ООО «Кобра Гарант»",
          "-logo": "@drawable/ic_sec_kobra_garant",
          "addresses": {
            "-length": "1",
            "string": ["г. Москва, ул. Орджоникидзе, д. 11, стр. 43"]
          },
          "phones": {
            "-length": "1",
            "string": ["+7 495 979 50 82"]
          },
          "emails": {
            "-length": "1",
            "string": "info@cobragarant.ru"
          },
          "sites": {
            "-length": "1",
            "string": "http://www.cobragarant.ru/"
          }
        },
        {
          "-caption": "ООО «Мониторинговые системы»",
          "-logo": "@drawable/ic_sec_monitoringovie_sistemy",
          "addresses": {
            "-length": "1",
            "string": ["г.Набережные Челны, ул. Ш.Усманова, д.109а"]
          },
          "phones": {
            "-length": "1",
            "string": ["+7 8552 32 32 88"]
          },
          "emails": {
            "-length": "1",
            "string": "ms.ohrana@mail.ru"
          }
        },
        {
          "-caption": "ООО «Омикрон»",
          "-logo": "@drawable/ic_sec_omicron",
          "addresses": {
            "-length": "1",
            "string": ["г. Орёл, ул. 7 Ноября, д. 16 корпус а, пом. 2"]
          },
          "phones": {
            "-length": "1",
            "string": ["+7 4862 40 20 96"]
          },
          "emails": {
            "-length": "1",
            "string": "info@omicron57.ru"
          },
          "sites": {
            "-length": "1",
            "string": "http://omicron57.ru/"
          }
        },
        {
          "-caption": "ООО «Филин»",
          "-logo": "@drawable/ic_sec_filin",
          "addresses": {
            "-length": "1",
            "string": ["\tг. Ульяновск, ул. Локомотивная, д. 91/2."]
          },
          "phones": {
            "-length": "1",
            "string": ["+7 8422 35 70 40"]
          },
          "emails": {
            "-length": "1",
            "string": "Filin0121@yandex.ru"
          },
          "sites": {
            "-length": "1",
            "string": "http://ohrana-filin.ru/"
          }
        },
        {
          "-caption": "ООО Охранное предприятие «Жилстрой-щит»",
          "-logo": "@drawable/ic_sec_zhilstroischit",
          "addresses": {
            "-length": "1",
            "string": ["г. Волгодонск, ул.Ленинградская, д. 10"]
          },
          "phones": {
            "-length": "1",
            "string": ["+7 8639 23 57 40"]
          }
        },
        {
          "-caption": "ООО «Секьюрити Гард»",
          "-logo": "@drawable/ic_sec_security_gard",
          "addresses": {
            "-length": "1",
            "string": ["г. Москва, пл. Спартаковская, д. 14, стр. 1, 1 этаж, оф. 121"]
          },
          "phones": {
            "-length": "1",
            "string": ["+7 495 641 02 88"]
          },
          "emails": {
            "-length": "1",
            "string": "safety@securguard.ru"
          },
          "sites": {
            "-length": "1",
            "string": "https://www.securguard.ru/"
          }
        },
        {
          "-caption": "ООО «Секьюрити-профи «ОПС»",
          "-logo": "@drawable/ic_security_profi_ops",
          "addresses": {
            "-length": "1",
            "string": ["г. Йошкар-Ола, ул. Свердлова, д. 46"]
          },
          "phones": {
            "-length": "1",
            "string": ["+7 800 234 84 24"]
          },
          "sites": {
            "-length": "1",
            "string": "http://s-profy.ru/"
          }
        },
        {
          "-caption": "ООО «Строительство инженерно-технических сетей и систем безопасности»",
          "-logo": "@drawable/ic_sec_stitssb",
          "addresses": {
            "-length": "1",
            "string": ["МО, г. Подольск, ул. Февральская, д.57, стр.1, под.1, эт.2, оф.23"]
          },
          "phones": {
            "-length": "1",
            "string": ["+7 495 411 25 35"]
          },
          "emails": {
            "-length": "1",
            "string": "stitssb@gmail.com"
          },
          "sites": {
            "-length": "1",
            "string": "http://stits-sb.ru/"
          }
        },
        {
          "-caption": "ООО «Триомад»",
          "-logo": "@drawable/ic_sec_triomad",
          "addresses": {
            "-length": "1",
            "string": ["Казахстан, г. Алматы, пр. Рыскулова д. 140/4, оф. 310"]
          },
          "phones": {
            "-length": "1",
            "string": ["+7 727 220 88 60"]
          },
          "emails": {
            "-length": "1",
            "string": "mitvit84@gmail.com"
          },
          "sites": {
            "-length": "1",
            "string": "http://triomad.satu.kz/"
          }
        },
        {
          "-caption": "ООО «Цербер»",
          "-logo": "@drawable/ic_sec_cerber",
          "addresses": {
            "-length": "1",
            "string": ["г. Пермь, ул. Куйбышева, д. 2"]
          },
          "phones": {
            "-length": "1",
            "string": ["+7 342 206 19 12"]
          },
          "emails": {
            "-length": "1",
            "string": "info@cerbergroup.ru"
          },
          "sites": {
            "-length": "1",
            "string": "http://www.cerbergroup.ru/"
          }
        },
        {
          "-caption": "ООО ЧОО «Арсенал»",
          "-logo": "@drawable/ic_sec_arsenal",
          "addresses": {
            "-length": "1",
            "string": ["г. Москва, ул. Генерала Тюленева, д. 4Ас1"]
          },
          "phones": {
            "-length": "1",
            "string": ["+7 495 2039798"]
          },
          "emails": {
            "-length": "1",
            "string": "info@myoxrana.ru"
          },
          "sites": {
            "-length": "1",
            "string": "http://arsenal.myoxrana.ru/"
          }
        },
        {
          "-caption": "ООО ЧОО «ТРИГЛАВ»",
          "-logo": "@drawable/ic_sec_triglav",
          "addresses": {
            "-length": "1",
            "string": ["г. Можайск, пр-д Мира, дом 3, пом. А8,А9"]
          },
          "phones": {
            "-length": "1",
            "string": ["+7 985 972 18 18"]
          },
          "sites": {
            "-length": "1",
            "string": "http://3glav.ru/"
          }
        },
        {
          "-caption": "ООО ЧОО «ФортСБ»",
          "-logo": "@drawable/ic_sec_fortsb",
          "addresses": {
            "-length": "1",
            "string": ["г. Воронеж, пр. Труда, 39"]
          },
          "phones": {
            "-length": "2",
            "string": [
              "+7 920 433 03 91",
              "+7 473 234 39 28"
            ]
          },
          "emails": {
            "-legnth": "1",
            "string": "fortcb@yandex.ru"
          },
          "sites": {
            "-length": "1",
            "string": "http://36.абворонеж.рф/"
          }
        },
        {
          "-caption": "ООО ЧОП «Литания-М»",
          "-logo": "@drawable/ic_sec_litaniya_m",
          "addresses": {
            "-length": "1",
            "string": ["г. Москва, ул. Шумкина, д. 20, стр. 1"]
          },
          "phones": {
            "-length": "1",
            "string": ["+7 495 956 49 17"]
          },
          "emails": {
            "-length": "1",
            "string": "info@litania.ru"
          },
          "sites": {
            "-length": "1",
            "string": "http://litania.ru/"
          }
        },
        {
          "-caption": "ООО ЧОП «Омега»",
          "-logo": "@drawable/ic_sec_omega",
          "addresses": {
            "-length": "1",
            "string": ["г.Старый Оскол, м-он Зеленый Лог, д.3"]
          },
          "phones": {
            "-length": "1",
            "string": ["+7 4725 44 60 65"]
          },
          "emails": {
            "-length": "1",
            "string": "omega-oskol@mail.ru"
          },
          "sites": {
            "-length": "1",
            "string": "http://omega-oskol.ru/"
          }
        },
        {
          "-caption": "ООО ЧОП «Фалькон Крым»",
          "-logo": "@drawable/ic_sec_falcon",
          "addresses": {
            "-length": "1",
            "string": ["г. Симферополь, ул. Тургенева, д. 30"]
          },
          "phones": {
            "-length": "1",
            "string": ["+7 3652 62 11 50"]
          },
          "emails": {
            "-length": "1",
            "string": "44fz@falkon82.ru"
          }
        },
        {
          "-caption": "ООО ЧОП «Фарб-М»",
          "-logo": "@drawable/ic_sec_farb_m",
          "addresses": {
            "-length": "1",
            "string": ["г. Йошкар-Ола, ул. Машиностроителей, д. 16 а"]
          },
          "phones": {
            "-length": "1",
            "string": ["+7 8362 405405"]
          },
          "emails": {
            "-length": "1",
            "string": "service@farbm.ru"
          },
          "sites": {
            "-length": "1",
            "string": "http://farbm.ru/"
          }
        },
        {
          "-caption": "ООО «ЮНИМАКС»",
          "-logo": "@drawable/ic_sec_unimax",
          "addresses": {
            "-length": "1",
            "string": ["МО, г. Москва, ш. Энтузиастов, д.82/2, к.1"]
          },
          "phones": {
            "-length": "1",
            "string": ["+7 495 739 96 55"]
          },
          "emails": {
            "-length": "1",
            "string": "info@umx.ru"
          },
          "sites": {
            "-length": "1",
            "string": "http://umx.ru/"
          }
        },
        {
          "-caption": "ОПС ТОО Эгида",
          "-logo": "@drawable/ic_sec_egida",
          "addresses": {
            "-length": "1",
            "string": ["Казахстан, г.Караганда, ул. Лободы, д. 11а"]
          },
          "phones": {
            "-length": "1",
            "string": ["+7 7212 41 14 21"]
          },
          "sites": {
            "-length": "1",
            "string": "http://egidasecurity.kz/"
          }
        },
        {
          "-caption": "Сиб Тех Монтаж",
          "-logo": "@drawable/ic_sec_sibtechmontazh",
          "addresses": {
            "-length": "1",
            "string": ["г. Тюмень, ул. Михаила Сперанского, д. 37"]
          },
          "phones": {
            "-length": "1",
            "string": ["+7 3452 54 81 51"]
          },
          "sites": {
            "-length": "1",
            "string": "http://сибтехмонтаж72.рф/"
          }
        },
        {
          "-caption": "Технологии и Системы",
          "-logo": "@drawable/",
          "addresses": {
            "-length": "1",
            "string": ["Р. Крым, г. Ялта"]
          },
          "phones": {
            "-length": "1",
            "string": ["+7 978 917 34 04"]
          }
        },
        {
          "-caption": "ТОО Азия Секьюрити АС",
          "-logo": "@drawable/ic_sec_asia_security_as",
          "addresses": {
            "-length": "1",
            "string": ["Казахстан, г. Астана, ул. Сейфуллина, д. 65"]
          },
          "phones": {
            "-length": "1",
            "string": ["+7 7172 52 10 72"]
          },
          "sites": {
            "-length": "1",
            "string": "http://asiasecurity.kz/"
          }
        },
        {
          "-caption": "Третий Рим",
          "-logo": "@drawable/ic_sec_tretiy_rim",
          "addresses": {
            "-length": "1",
            "string": ["г. Михайловск, ул. Демидова, д. 28"]
          },
          "phones": {
            "-length": "1",
            "string": ["+7 8652 602 400"]
          },
          "emails": {
            "-length": "1",
            "string": "info@trety-rim.ru"
          },
          "sites": {
            "-length": "1",
            "string": "http://tretyrim.ru/"
          }
        },
        {
          "-caption": "УВО Краснодарского края",
          "-logo": "@drawable/ic_sec_uvo_krsndr",
          "addresses": {
            "-length": "1",
            "string": ["г. Краснодар, ул. Новокузнечная, д. 125"]
          },
          "phones": {
            "-length": "1",
            "string": ["+7 861 255 20 50"]
          },
          "sites": {
            "-length": "1",
            "string": "http://ohranakuban.ru/"
          }
        },
        {
          "-caption": "УВО по Самарской области",
          "-logo": "@drawable/ic_sec_uvo_samara",
          "addresses": {
            "-length": "1",
            "string": ["г. Самара, ул. Стара Загора, д. 159Б"]
          },
          "phones": {
            "-length": "1",
            "string": ["+7 846 995 29 22"]
          },
          "sites": {
            "-length": "1",
            "string": "http://uvo63.ru/"
          }
        },
        {
          "-caption": "УВО по Саратовской области",
          "-logo": "@drawable/ic_sec_uvo_saratov",
          "addresses": {
            "-length": "1",
            "string": [" г.Саратов, ул. Соколовогорская, 8а"]
          },
          "phones": {
            "-length": "2",
            "string": [
              "+7 8452 54 33 16",
              "+7 8452 54 33 18"
            ]
          },
          "sites": {
            "-length": "1",
            "string": "http://uvo.san.ru/"
          }
        },
        {
          "-caption": "УВО по Ставропольскому краю",
          "-logo": "@drawable/ic_sec_uvo_stavropol",
          "addresses": {
            "-length": "1",
            "string": ["г. Ставрополь, ул. Калинина, д. 3"]
          },
          "phones": {
            "-length": "1",
            "string": ["+7 8652 28 33 02"]
          },
          "sites": {
            "-length": "1",
            "string": "http://uvo26.ru/"
          }
        },
        {
          "-caption": "УВО по городу Москве",
          "-logo": "@drawable/ic_sec_uvo_msk",
          "addresses": {
            "-length": "1",
            "string": ["г. Москва, ул. Люблинская, д. 16"]
          },
          "phones": {
            "-length": "1",
            "string": ["+7 495 351 00 60"]
          },
          "sites": {
            "-length": "1",
            "string": "http://uvo.ru/"
          }
        },
        {
          "-caption": "УВО по Республике Крым",
          "-logo": "ic_sec_uvo_krim",
          "addresses": {
            "-length": "1",
            "string": ["г. Симферополь, ул. Миллера, д. 4"]
          },
          "phones": {
            "-length": "1",
            "string": ["+7 3652 54 14 59"]
          },
          "sites": {
            "-length": "1",
            "string": "http://uvo-crimea.ru/"
          }
        },
        {
          "-caption": "УВО по Республике Татарстан",
          "-logo": "@drawable/ic_sec_uvo_tatarstan",
          "addresses": {
            "-length": "1",
            "string": ["г. Казань, ул. Лево-Булачная, д. 20"]
          },
          "phones": {
            "-length": "1",
            "string": ["+7 843 231 44 11"]
          },
          "sites": {
            "-length": "1",
            "string": "http://увотатарстана.рф/"
          }
        },
        {
          "-caption": "Хозяйственное общество «Улы Гая»",
          "-logo": "@drawable/ic_sec_uli_gaya",
          "addresses": {
            "-length": "1",
            "string": ["Туркмения, г. Ашхабад, ул. Мир 6, д.64"]
          },
          "phones": {
            "-length": "1",
            "string": ["+993 12 96 55 09"]
          },
          "emails": {
            "-length": "1",
            "string": "ulygayasec@gmail.com"
          },
          "sites": {
            "-length": "1",
            "string": "http://uly-gaya.com/"
          }
        },
        {
          "-caption": "Центр Безопасности Уфа",
          "-logo": "@drawable/ic_sec_centr_bezopasnosti_ufa",
          "addresses": {
            "-length": "1",
            "string": ["г. Уфа, ул. Р. Зорге, д. 33/1, оф. 3"]
          },
          "phones": {
            "-length": "1",
            "string": ["+7 347 216 16 16"]
          },
          "sites": {
            "-length": "1",
            "string": "http://центрбезопасности.рф/"
          }
        },
        {
          "-caption": "ЧОО «Казачья стража»",
          "-logo": "@drawable/ic_sec_kazachyastrazha",
          "addresses": {
            "-length": "1",
            "string": ["г. Москва, пр-кт Мира, д. 49А"]
          },
          "phones": {
            "-length": "1",
            "string": ["+7 929 679 02 00"]
          },
          "emails": {
            "-length": "1",
            "string": "Info@kazakstraja.ru"
          },
          "sites": {
            "-length": "1",
            "string": "http://kazakstraja.ru/"
          }
        },
        {
          "-caption": "ЧОО «Стрела»",
          "-logo": "@drawable/ic_sec_strela",
          "addresses": {
            "-length": "1",
            "string": ["г. Волгоград, пр-кт им. Маршала Г.К.Жукова, д. 141"]
          },
          "phones": {
            "-length": "1",
            "string": ["+7 937 090 40 48"]
          },
          "emails": {
            "-length": "1",
            "string": "strela-ohrana@yandex.ru"
          },
          "sites": {
            "-length": "1",
            "string": "http://strela34.ru/"
          }
        },
        {
          "-caption": "ООО ЧОО «Дозор-С»",
          "-logo": "@drawable/ic_sec_dozor_c",
          "addresses": {
            "-length": "1",
            "string": ["г. Ковров, ул. Еловая, д.98, оф. 1"]
          },
          "phones": {
            "-length": "1",
            "string": ["+7 900 588 63 11"]
          },
          "emails": {
            "-length": "1",
            "string": "dozor.kovrov@mail.ru"
          },
          "sites": {
            "-length": "1",
            "string": "http://kovrovdozor-s.ru/"
          }
        },
        {
          "-caption": "ЧОП «Правопорядокъ-I»",
          "-logo": "@drawable/ic_sec_pravoporyadok",
          "addresses": {
            "-length": "1",
            "string": ["МО, Люберецкий р-н, раб. п. Малаховка, ул.Шоссейная, д. 1 кор. а, оф. 6"]
          },
          "phones": {
            "-length": "1",
            "string": ["+7 915 356 96 11"]
          },
          "emails": {
            "-length": "1",
            "string": "secretary@pp-1.ru"
          },
          "sites": {
            "-length": "1",
            "string": "http://www.pp-1.ru/"
          }
        },
        {
          "-caption": "ЧОП «Сова»",
          "-logo": "@drawable/ic_sec_sova",
          "addresses": {
            "-length": "1",
            "string": ["г. Казань, Оренбургский тракт, 20, оф. 211, этаж 2"]
          },
          "phones": {
            "-length": "1",
            "string": ["+7 843 250 10 42"]
          },
          "sites": {
            "-length": "1",
            "string": "http://sovaguard.ru/"
          }
        },
        {
          "-caption": "ЧОП «Фаворит-СБ»",
          "-logo": "@drawable/ic_sec_favorit",
          "addresses": {
            "-length": "1",
            "string": ["МО,с. Красное, ул. Строителей, д. 5, корп. 2, оф. 19"]
          },
          "phones": {
            "-length": "1",
            "string": ["+7 495 840 90 71"]
          }
        }
      ]
    }
  }
}
