<?xml version="1.0" encoding="UTF-8"?>
<svg width="36px" height="36px" viewBox="0 0 36 36" version="1.1" xmlns="http://www.w3.org/2000/svg" xmlns:xlink="http://www.w3.org/1999/xlink">
    <title>8DE56EE6-15FC-4D26-B627-582D589D5DA6</title>
    <g id="Page-1" stroke="none" stroke-width="1" fill="none" fill-rule="evenodd" stroke-linecap="round" stroke-linejoin="round">
        <g id="Profile" transform="translate(-23.000000, -798.000000)" stroke="#3ABEFF" stroke-width="1.3">
            <g id="Ic_soglashenie" transform="translate(30.000000, 803.000000)">
                <path d="M5.20075833,25.527125 C2.74159167,25.527125 0.748258333,23.5337917 0.748258333,21.074625 L0.748258333,0.748041667 L19.805175,0.748041667 L19.805175,19.0152083" id="Stroke-1"></path>
                <path d="M8.71,19.0155333 L8.71,21.07495 C8.71,23.4810333 6.79791667,25.4277833 4.41241667,25.5112 L4.41241667,25.5263667 L19.7665,25.5263667 C22.2245833,25.5263667 24.2179167,23.5330333 24.2179167,21.07495 L24.2179167,19.0155333 L8.71,19.0155333 Z" id="Stroke-3"></path>
                <line x1="4.64901667" y1="5.19826667" x2="15.9037667" y2="5.19826667" id="Stroke-5"></line>
                <line x1="4.64901667" y1="9.61144167" x2="15.9037667" y2="9.61144167" id="Stroke-7"></line>
                <line x1="4.64901667" y1="14.024725" x2="15.9037667" y2="14.024725" id="Stroke-9"></line>
            </g>
        </g>
    </g>
</svg>