<svg xmlns="http://www.w3.org/2000/svg" xmlns:xlink="http://www.w3.org/1999/xlink" width="187" height="141" viewBox="0 0 187 141">
    <defs>
        <path id="nnhao8v1aa" d="M1.391 1.319L16.232 1.319 16.232 20.53 1.391 20.53z"/>
        <path id="i9vn8e22ac" d="M0 140.289L183.443 140.289 183.443 1.174 0 1.174z"/>
    </defs>
    <g fill="none" fill-rule="evenodd">
        <g>
            <g>
                <path fill="#438945" d="M92.291 39.955L92.291 65.753 100.886 65.753 100.886 54.293 106.619 54.293 124.533 65.753 136.723 65.753 114.499 52.139 136.723 39.955 123.825 39.955 106.619 49.982 100.886 49.982 100.886 39.955zM85.125 44.976L85.125 39.954 47.154 39.954 47.154 65.75 85.125 65.752 85.125 60.738 55.744 60.738 55.744 55.003 84.41 55.003 84.41 49.981 55.744 49.981 55.744 44.97zM2 39.955L2 44.97 17.772 44.97 17.772 65.751 26.369 65.751 26.369 44.97 42.133 44.97 42.133 39.955z" transform="translate(-86 -159) translate(86 158)"/>
                <g transform="translate(-86 -159) translate(86 158) translate(2 .537)">
                    <path fill="#438945" d="M170.543 36.905h12.187c0-23.813-45.646-35.72-91.313-35.73h-.094C45.655 1.19.003 13.091.003 36.904h12.181c0-45.486 158.36-45.493 158.36 0"/>
                    <path fill="#438945" d="M169.106 36.905c0-42.273-155.483-42.258-155.483 0h10.03c0-40.117 135.433-40.117 135.433 0h10.02z"/>
                    <path fill="#438945" d="M156.93 36.905c0-37.245-131.126-37.245-131.126 0h8.594c0-35.108 113.911-35.101 113.911 0h8.621z"/>
                    <path fill="#438945" d="M37.265 36.905h7.165c0-30.805 93.874-30.805 93.874 0h7.161c0-32.958-108.2-32.964-108.2 0M12.185 67.72H.004c0 47.655 182.726 47.655 182.726.001h-12.186c0 45.495-158.359 45.495-158.359-.002"/>
                    <path fill="#438945" d="M23.653 67.72H13.624c0 42.276 155.483 42.276 155.483.001h-10.022c0 40.133-135.432 40.133-135.432-.002"/>
                    <path fill="#438945" d="M34.398 67.72h-8.592c0 37.262 131.124 37.262 131.124.001h-8.621c0 35.11-113.911 35.11-113.911-.002"/>
                    <path fill="#438945" d="M44.43 67.72h-7.165c0 32.96 108.2 32.97 108.2.001h-7.162c0 30.812-93.873 30.81-93.873-.002M174.122 55.3c0 2.712-2.195 4.9-4.885 4.9h-16.015c-2.698 0-4.91-2.188-4.91-4.9v-5.972c0-2.696 2.212-4.894 4.91-4.894h16.015c2.69 0 4.885 2.198 4.885 4.894v5.973zm-.34-15.883h-25.117c-5.338 0-9.65 4.33-9.65 9.668v6.478c0 5.32 4.312 9.652 9.65 9.652h25.116c5.34 0 9.662-4.332 9.662-9.652v-6.478c0-5.338-4.322-9.668-9.662-9.668zM13.236 131.05c-.48-.462-1.068-.859-1.764-1.194-.696-.336-1.487-.666-2.375-.99-.506-.182-.971-.37-1.396-.57-.426-.2-.797-.416-1.113-.65-.317-.237-.562-.504-.73-.801-.174-.3-.261-.657-.261-1.073 0-.686.26-1.222.773-1.601.517-.378 1.236-.57 2.158-.57.778 0 1.534.09 2.265.272.734.181 1.408.443 2.022.787l1.06-2.768c-.528-.306-1.245-.592-2.16-.856-.912-.261-1.957-.391-3.133-.391-2.025 0-3.627.484-4.802 1.452-1.177.967-1.764 2.3-1.764 4 0 .814.139 1.51.421 2.089.28.58.65 1.078 1.112 1.494.46.415.994.764 1.6 1.045.607.28 1.235.537 1.887.773.652.217 1.23.438 1.736.664.507.226.936.47 1.29.732.353.262.623.556.813.883.19.325.284.715.284 1.165 0 .761-.279 1.348-.84 1.766-.561.415-1.458.622-2.686.622-1.177 0-2.181-.135-3.011-.405-.832-.274-1.494-.544-1.981-.814l-1.005 2.793c.218.127.507.267.87.421.359.154.788.305 1.286.449.498.145 1.068.266 1.71.364.642.1 1.354.15 2.13.15 2.316 0 4.074-.465 5.279-1.397 1.203-.931 1.803-2.247 1.803-3.949 0-.884-.126-1.64-.378-2.265-.255-.623-.621-1.165-1.1-1.627M21.528 131.471L29.233 131.471 29.233 128.621 21.528 128.621 21.528 123.981 30.185 123.981 30.185 121.079 18.109 121.079 18.109 139.881 30.835 139.881 30.835 136.978 21.528 136.978zM45.525 136.883c-.76.246-1.747.367-2.958.367-1.013 0-1.882-.167-2.606-.503-.724-.333-1.319-.804-1.79-1.41-.47-.607-.817-1.325-1.045-2.157-.226-.831-.339-1.747-.339-2.742 0-1.12.146-2.106.433-2.957.29-.85.693-1.555 1.21-2.114.513-.563 1.126-.984 1.83-1.264.705-.28 1.465-.42 2.28-.42.94 0 1.813.122 2.617.366.806.245 1.425.502 1.86.774l1.004-2.796c-.127-.072-.344-.19-.652-.352-.308-.163-.696-.315-1.167-.46-.47-.146-1.021-.276-1.654-.396-.633-.116-1.34-.174-2.118-.174-1.285 0-2.486.217-3.608.65-1.121.435-2.1 1.073-2.931 1.913-.832.841-1.487 1.868-1.966 3.081-.48 1.211-.718 2.604-.718 4.178 0 1.574.207 2.965.622 4.178.416 1.211 1.013 2.238 1.792 3.08.776.84 1.728 1.477 2.848 1.912 1.12.435 2.387.652 3.8.652.724 0 1.401-.041 2.034-.122.633-.082 1.203-.19 1.71-.326.506-.137.945-.276 1.317-.421.37-.146.663-.29.879-.435l-.922-2.794c-.416.218-1.004.447-1.762.692"/>
                    <g transform="translate(49.614 119.759)">
                        <mask id="veashhu6ob" fill="#fff">
                            <use xlink:href="#nnhao8v1aa"/>
                        </mask>
                        <path fill="#438945" d="M12.787 12.743c0 .85-.096 1.577-.286 2.183-.19.607-.462 1.1-.815 1.48-.352.378-.773.658-1.26.841-.49.18-1.03.27-1.63.27-.596 0-1.133-.09-1.613-.27-.48-.183-.896-.463-1.248-.841-.353-.38-.625-.873-.813-1.48-.192-.606-.286-1.333-.286-2.183V1.319H1.391v11.749c0 1.084.143 2.08.434 2.985.29.904.736 1.69 1.341 2.36.606.67 1.373 1.19 2.295 1.561.922.368 2.024.556 3.308.556 1.285 0 2.399-.188 3.34-.556.938-.37 1.71-.89 2.318-1.562.606-.669 1.058-1.455 1.357-2.359.3-.905.448-1.9.448-2.985V1.319h-3.445v11.424z" mask="url(#veashhu6ob)"/>
                    </g>
                    <path fill="#438945" d="M80.069 128.432c-.216.397-.537.713-.961.95-.428.234-.955.396-1.588.487-.633.092-1.367.137-2.199.137H73.83v-6.079c.614-.055 1.284-.082 2.006-.082.67 0 1.285.051 1.845.149.563.1 1.047.267 1.452.503.407.236.72.55.936.95.217.398.325.886.325 1.464 0 .616-.108 1.124-.325 1.52m2.633 7.15c-.453-.698-.895-1.343-1.33-1.94-.434-.598-.824-1.103-1.166-1.52 2.513-.904 3.77-2.632 3.77-5.183 0-2.042-.718-3.562-2.157-4.557-1.437-.994-3.512-1.492-6.226-1.492-.742 0-1.584.03-2.525.094-.94.065-1.825.186-2.658.366v18.532h3.42v-7.109h2.169c.183 0 .399-.008.652-.027.344.434.715.927 1.112 1.48.398.55.8 1.14 1.208 1.764.407.622.809 1.264 1.206 1.926.398.66.77 1.316 1.114 1.966h3.825c-.325-.705-.696-1.425-1.112-2.156-.416-.734-.85-1.447-1.302-2.144"/>
                    <mask id="b7yqi0sr9d" fill="#fff">
                        <use xlink:href="#i9vn8e22ac"/>
                    </mask>
                    <path fill="#438945" d="M88.011 139.882L91.429 139.882 91.429 121.08 88.011 121.08zM94.17 124.036L99.949 124.036 99.949 139.882 103.397 139.882 103.397 124.036 109.176 124.036 109.176 121.078 94.17 121.078zM121.73 125.284c-.778 1.393-1.573 2.767-2.388 4.123-.831-1.356-1.628-2.73-2.386-4.123-.76-1.392-1.458-2.795-2.09-4.205h-4.014c1.01 1.916 2.07 3.824 3.173 5.724 1.104 1.9 2.279 3.817 3.528 5.752v7.326h3.418v-7.379c1.247-1.918 2.42-3.822 3.513-5.712 1.094-1.89 2.148-3.795 3.161-5.711h-3.798c-.633 1.41-1.34 2.813-2.116 4.205M142.406 129.245L132.204 129.245 132.204 121.08 130.36 121.08 130.36 139.882 132.204 139.882 132.204 130.847 142.406 130.847 142.406 139.882 144.252 139.882 144.252 121.08 142.406 121.08zM161.08 132.664c0 1.032-.121 1.923-.366 2.672-.243.751-.583 1.37-1.018 1.858-.433.491-.958.852-1.574 1.087-.614.236-1.302.352-2.061.352-.76 0-1.448-.116-2.064-.352-.614-.235-1.14-.596-1.574-1.087-.43-.487-.771-1.107-1.016-1.858-.245-.75-.366-1.64-.366-2.672V121.08h-1.844v11.829c0 1.03.121 1.994.366 2.89.243.894.638 1.678 1.18 2.346.54.67 1.25 1.193 2.129 1.574.877.38 1.941.57 3.189.57s2.31-.19 3.189-.57c.876-.381 1.586-.905 2.13-1.574.542-.668.935-1.452 1.178-2.347.245-.895.366-1.86.366-2.89V121.08h-1.844v11.584zM178.516 136.51c-.363.508-.84.907-1.439 1.197-.595.291-1.288.492-2.075.601-.787.108-1.596.163-2.43.163-.559 0-1.11-.023-1.652-.069-.544-.044-.951-.084-1.222-.121v-7.436h3.908c.83 0 1.588.057 2.265.165.68.109 1.252.304 1.723.585.469.282.831.663 1.085 1.144.253.481.38 1.085.38 1.81 0 .8-.182 1.453-.543 1.96zm-8.818-13.83c.307-.055.692-.101 1.153-.136.46-.037 1.025-.054 1.696-.054.831 0 1.591.058 2.279.174.688.118 1.28.311 1.777.582.498.27.881.616 1.153 1.04.272.424.408.94.408 1.555 0 .684-.127 1.247-.38 1.689-.253.441-.602.792-1.045 1.054-.444.261-.964.441-1.56.54-.598.1-1.23.149-1.9.149h-3.58v-6.594zm10.228 8.629c-.342-.371-.741-.674-1.193-.909-.453-.236-.95-.417-1.492-.545.868-.27 1.56-.762 2.076-1.477.516-.711.773-1.574.773-2.587 0-.92-.204-1.692-.61-2.314-.408-.623-.955-1.124-1.641-1.506-.69-.378-1.49-.65-2.402-.812-.914-.161-1.877-.243-2.89-.243-.344 0-.719.01-1.126.025-.407.019-.824.052-1.249.096-.424.045-.836.101-1.235.164-.397.064-.76.14-1.083.231v18.098c.27.071.595.14.975.203.382.063.782.116 1.208.163.424.044.84.08 1.247.107.41.028.765.04 1.071.04 2.95 0 5.13-.466 6.54-1.398 1.412-.932 2.117-2.287 2.117-4.062 0-.744-.096-1.382-.284-1.916-.19-.533-.458-.985-.802-1.358z" mask="url(#b7yqi0sr9d)"/>
                </g>
            </g>
        </g>
    </g>
</svg>
