<svg xmlns="http://www.w3.org/2000/svg" width="36" height="36" viewBox="0 0 36 36">
    <g fill="none" fill-rule="evenodd" stroke="#FF954D" stroke-linecap="round" stroke-linejoin="round" stroke-width="1.56">
        <path d="M2.629 20.03h0c-.994 0-1.8-.806-1.8-1.8v-6c0-.995.806-1.8 1.8-1.8.995 0 1.8.805 1.8 1.8v6c0 .994-.805 1.8-1.8 1.8zM21.829 10.43h0c.995 0 1.8.805 1.8 1.8v6c0 .994-.805 1.8-1.8 1.8-.994 0-1.8-.806-1.8-1.8v-6c0-.995.806-1.8 1.8-1.8zM12.829 27.23h-3.6c-.662 0-1.2-.539-1.2-1.2 0-.663.538-1.2 1.2-1.2h3.6c.662 0 1.2.537 1.2 1.2 0 .661-.538 1.2-1.2 1.2zM22.429 20.03c0 4.8-2.4 6-8.4 6M3.229 10.43v-.6c0-4.971 4.03-9 9-9s9 4.029 9 9v.6" transform="translate(6 4)"/>
    </g>
</svg>
