{
  "inputTypes": [
    {
      "id": 1,
      "title": "Intrusion",
      "detectorTypes": [
        {
          "id": 2,
          "title": "Alarm annunciation",
          "sectionMask": 3,
          "sectionDefault": 2,
          "isDefaultDetector": false,
          "alarmTypes": [
            {
              "id": 1,
              "title": "General alarm type",
              "icon": "ic_test_48",
              "isDefaultAlarm": false
            },
            {
              "id": 10,
              "title": "Manual alarm",
              "icon": "ic_test_48",
              "isDefaultAlarm": true
            }
          ]
        },
        {
          "id": 3,
          "title": "Medical alarm",
          "sectionMask": 3,
          "sectionDefault": 5,
          "isDefaultDetector": false,
          "alarmTypes": [
            {
              "id": 1,
              "title": "General type medical",
              "icon": "ic_test_48",
              "isDefaultAlarm": true
            }
          ]
        },
        {
          "id": 4,
          "title": "Automatic burglar alarm",
          "sectionMask": 3,
          "sectionDefault": 1,
          "isDefaultDetector": true,
          "alarmTypes": [
            {
              "id": 1,
              "title": "General intrusion type",
              "icon": "ic_test_48",
              "isDefaultAlarm": false
            },
            {
              "id": 13,
              "title": "External",
              "icon": "ic_test_48",
              "isDefaultAlarm": false
            },
            {
              "id": 14,
              "title": "Internal",
              "icon": "ic_test_48",
              "isDefaultAlarm": false
            },
            {
              "id": 15,
              "title": "Input",
              "icon": "ic_test_48",
              "isDefaultAlarm": true
            },
            {
              "id": 16,
              "title": "Intrusion",
              "icon": "ic_test_48",
              "isDefaultAlarm": false
            },
            {
              "id": 17,
              "title": "Movement",
              "icon": "ic_test_48",
              "isDefaultAlarm": false
            },
            {
              "id": 25,
              "title": "Construction movement",
              "icon": "ic_test_48",
              "isDefaultAlarm": false
            },
            {
              "id": 32,
              "title": "Window opening",
              "icon": "ic_test_48",
              "isDefaultAlarm": false
            },
            {
              "id": 33,
              "title": "Door opening",
              "icon": "ic_test_48",
              "isDefaultAlarm": false
            },
            {
              "id": 34,
              "title": "Safe opening",
              "icon": "ic_test_48",
              "isDefaultAlarm": false
            },
            {
              "id": 35,
              "title": "Glass break",
              "icon": "ic_test_48",
              "isDefaultAlarm": false
            },
            {
              "id": 36,
              "title": "Door breaking",
              "icon": "ic_test_48",
              "isDefaultAlarm": false
            },
            {
              "id": 37,
              "title": "Safe burglary",
              "icon": "ic_test_48",
              "isDefaultAlarm": false
            },
            {
              "id": 38,
              "title": "Perimeter crossing",
              "icon": "ic_test_48",
              "isDefaultAlarm": false
            },
            {
              "id": 39,
              "title": "Movement on protected area",
              "icon": "ic_test_48",
              "isDefaultAlarm": false
            }
          ]
        },
        {
          "id": 5,
          "title": "Technological alarm",
          "sectionMask": 16,
          "sectionDefault": 5,
          "isDefaultDetector": false,
          "alarmTypes": [
            {
              "id": 1,
              "title": "Common technological type",
              "icon": "ic_test_48",
              "isDefaultAlarm": false
            },
            {
              "id": 22,
              "title": "Gas leakage",
              "icon": "ic_test_48",
              "isDefaultAlarm": false
            },
            {
              "id": 23,
              "title": "Water leakage",
              "icon": "ic_test_48",
              "isDefaultAlarm": true
            }
          ]
        },
        {
          "id": 6,
          "title": "Telemetry equipment",
          "sectionMask": 16,
          "sectionDefault": 5,
          "isDefaultDetector": false,
          "alarmTypes": [
            {
              "id": 1,
              "title": "General telemetric type",
              "icon": "ic_test_48",
              "isDefaultAlarm": true
            },
            {
              "id": 18,
              "title": "Temperature decrease",
              "icon": "ic_test_48",
              "isDefaultAlarm": false
            },
            {
              "id": 19,
              "title": "Temperature rising",
              "icon": "ic_test_48",
              "isDefaultAlarm": false
            }
          ]
        }
      ]
    },
    {
      "id": 2,
      "title": "Fire",
      "detectorTypes": [
        {
          "id": 1,
          "title": "Fire alarm system",
          "sectionMask": 4,
          "sectionDefault": 3,
          "isDefaultDetector": true,
          "alarmTypes": [
            {
              "id": 1,
              "title": "General type fire detection",
              "icon": "ic_test_48",
              "isDefaultAlarm": false
            },
            {
              "id": 20,
              "title": "Smoke",
              "icon": "ic_test_48",
              "isDefaultAlarm": true
            },
            {
              "id": 21,
              "title": "Fire",
              "icon": "ic_test_48",
              "isDefaultAlarm": false
            }
          ]
        }
      ]
    },
    {
      "id": 3,
      "title": "Fire, double event",
      "detectorTypes": [
        {
          "id": 1,
          "title": "Fire alarm system",
          "sectionMask": 4,
          "sectionDefault": 3,
          "isDefaultDetector": true,
          "alarmTypes": [
            {
              "id": 1,
              "title": "General type fire detection",
              "icon": "ic_test_48",
              "isDefaultAlarm": false
            },
            {
              "id": 20,
              "title": "Smoke",
              "icon": "ic_test_48",
              "isDefaultAlarm": true
            },
            {
              "id": 21,
              "title": "Fire",
              "icon": "ic_test_48",
              "isDefaultAlarm": false
            }
          ]
        }
      ]
    },
    {
      "id": 4,
      "title": "Squad arrival indicator",
      "detectorTypes": [
        {
          "id": 0,
          "title": "Squad arrival indicator",
          "sectionMask": 0,
          "sectionDefault": 0,
          "isDefaultDetector": true,
          "alarmTypes": [
            {
              "id": 0,
              "title": "Squad arrival indicator",
              "icon": "ic_test_48",
              "isDefaultAlarm": true
            }
          ]
        }
      ]
    }
  ],
  "zoneTypes": [
    {
      "id": 1,
      "title": "Leakage sensor",
      "subTitle": "WLS - water leakage sensor",
      "img": "astra_361",
      "icon": "ic_astra_361",
      "detectorTypes": [
        {
          "id": 5,
          "title": "Technological alarm",
          "sectionMask": 16,
          "sectionDefault": 5,
          "isDefaultDetector": true,
          "alarmTypes": [
            {
              "id": 1,
              "title": "Common technological type",
              "icon": "ic_test_48",
              "isDefaultAlarm": false
            },
            {
              "id": 23,
              "title": "Water leakage",
              "icon": "ic_test_48",
              "isDefaultAlarm": true
            }
          ]
        },
        {
          "id": 6,
          "title": "Telemetry equipment",
          "sectionMask": 16,
          "sectionDefault": 5,
          "isDefaultDetector": false,
          "alarmTypes": [
            {
              "id": 1,
              "title": "General telemetric type",
              "icon": "ic_test_48",
              "isDefaultAlarm": false
            },
            {
              "id": 7,
              "title": "Beyond controlled parameter",
              "icon": "ic_test_48",
              "isDefaultAlarm": false
            },
            {
              "id": 8,
              "title": "Exceeding controlled parameter",
              "icon": "ic_test_48",
              "isDefaultAlarm": false
            },
            {
              "id": 9,
              "title": "Controlled parameter reduction",
              "icon": "ic_test_48",
              "isDefaultAlarm": false
            },
            {
              "id": 23,
              "title": "Water leakage",
              "icon": "ic_test_48",
              "isDefaultAlarm": true
            }
          ]
        }
      ]
    },
    {
      "id": 3,
      "title": "Combined optoelectronic sensor",
      "subTitle": "IRA (combined: AС channel 1 + IR channel 2)",
      "img": "astra_8",
      "icon": "ic_astra_8",
      "detectorTypes": [
        {
          "id": 4,
          "title": "Automatic burglar alarm",
          "sectionMask": 3,
          "sectionDefault": 1,
          "isDefaultDetector": true,
          "alarmTypes": [
            {
              "id": 13,
              "title": "External",
              "icon": "ic_test_48",
              "isDefaultAlarm": false
            },
            {
              "id": 14,
              "title": "Volume",
              "icon": "ic_test_48",
              "isDefaultAlarm": true
            },
            {
              "id": 15,
              "title": "Input",
              "icon": "ic_test_48",
              "isDefaultAlarm": false
            },
            {
              "id": 16,
              "title": "Intrusion",
              "icon": "ic_test_48",
              "isDefaultAlarm": false
            },
            {
              "id": 35,
              "title": "Door breaking",
              "icon": "ic_test_48",
              "isDefaultAlarm": false
            },
            {
              "id": 36,
              "title": "Glass breaking",
              "icon": "ic_test_48",
              "isDefaultAlarm": false
            },
            {
              "id": 37,
              "title": "Safe burglary",
              "icon": "ic_test_48",
              "isDefaultAlarm": false
            },
            {
              "id": 38,
              "title": "Perimeter crossing",
              "icon": "ic_test_48",
              "isDefaultAlarm": false
            },
            {
              "id": 39,
              "title": "Movement on protected area",
              "icon": "ic_test_48",
              "isDefaultAlarm": false
            }
          ]
        }
      ]
    },
    {
      "id": 4,
      "title": "Leakage sensor",
      "subTitle": "WLS - Water leakage sensor Astra-361",
      "img": "astra_361",
      "icon": "ic_astra_361",
      "detectorTypes": [
        {
          "id": 5,
          "title": "Technological alarm",
          "sectionMask": 16,
          "sectionDefault": 5,
          "isDefaultDetector": true,
          "alarmTypes": [
            {
              "id": 1,
              "title": "Common technological type",
              "icon": "ic_test_48",
              "isDefaultAlarm": false
            },
            {
              "id": 23,
              "title": "Water leakage",
              "icon": "ic_test_48",
              "isDefaultAlarm": true
            }
          ]
        },
        {
          "id": 6,
          "title": "Telemetry equipment",
          "sectionMask": 16,
          "sectionDefault": 5,
          "isDefaultDetector": false,
          "alarmTypes": [
            {
              "id": 1,
              "title": "General telemetric type",
              "icon": "ic_test_48",
              "isDefaultAlarm": false
            },
            {
              "id": 7,
              "title": "Beyond controlled parameter",
              "icon": "ic_test_48",
              "isDefaultAlarm": false
            },
            {
              "id": 8,
              "title": "Exceeding controlled parameter",
              "icon": "ic_test_48",
              "isDefaultAlarm": false
            },
            {
              "id": 9,
              "title": "Controlled parameter reduction",
              "icon": "ic_test_48",
              "isDefaultAlarm": false
            },
            {
              "id": 23,
              "title": "Water leakage",
              "icon": "ic_test_48",
              "isDefaultAlarm": true
            }
          ]
        }
      ]
    },
    {
      "id": 5,
      "title": "Temperature sensor",
      "subTitle": "Temperature sensor Astra 3731",
      "img": "astra_3731",
      "icon": "ic_astra_3731",
      "detectorTypes": [
        {
          "id": 1,
          "title": "Fire alarm system",
          "sectionMask": 4,
          "sectionDefault": 3,
          "isDefaultDetector": false,
          "alarmTypes": [
            {
              "id": 18,
              "title": "Overheat",
              "icon": "ic_test_48",
              "isDefaultAlarm": false
            },
            {
              "id": 21,
              "title": "Fire",
              "icon": "ic_test_48",
              "isDefaultAlarm": true
            }
          ]
        },
        {
          "id": 3,
          "title": "Medical alarm",
          "sectionMask": 2,
          "sectionDefault": 5,
          "isDefaultDetector": false,
          "alarmTypes": [
            {
              "id": 18,
              "title": "Overheat",
              "icon": "ic_test_48",
              "isDefaultAlarm": true
            },
            {
              "id": 19,
              "title": "Overcooling",
              "icon": "ic_test_48",
              "isDefaultAlarm": false
            }
          ]
        },
        {
          "id": 3,
          "title": "Technological alarm",
          "sectionMask": 2,
          "sectionDefault": 5,
          "isDefaultDetector": false,
          "alarmTypes": [
            {
              "id": 18,
              "title": "Overheat",
              "icon": "ic_test_48",
              "isDefaultAlarm": true
            },
            {
              "id": 19,
              "title": "Overcooling",
              "icon": "ic_test_48",
              "isDefaultAlarm": false
            }
          ]
        },
        {
          "id": 6,
          "title": "Telemetry equipment",
          "sectionMask": 16,
          "sectionDefault": 5,
          "isDefaultDetector": true,
          "alarmTypes": [
            {
              "id": 1,
              "title": "General telemetric type",
              "icon": "ic_test_48",
              "isDefaultAlarm": false
            },
            {
              "id": 7,
              "title": "Beyond controlled parameter",
              "icon": "ic_test_48",
              "isDefaultAlarm": true
            },
            {
              "id": 8,
              "title": "Exceeding controlled parameter",
              "icon": "ic_test_48",
              "isDefaultAlarm": false
            },
            {
              "id": 9,
              "title": "Controlled parameter reduction",
              "icon": "ic_test_48",
              "isDefaultAlarm": false
            },
            {
              "id": 18,
              "title": "Overheat",
              "icon": "ic_test_48",
              "isDefaultAlarm": false
            },
            {
              "id": 19,
              "title": "Overcooling",
              "icon": "ic_test_48",
              "isDefaultAlarm": false
            }
          ]
        }
      ]
    },
    {
      "id": 7,
      "title": "Panic button",
      "subTitle": "Panic button with channel control",
      "img": "astra_3221",
      "icon": "",
      "detectorTypes": [
        {
          "id": 2,
          "title": "Alarm annunciation",
          "sectionMask": 2,
          "sectionDefault": 2,
          "isDefaultDetector": true,
          "alarmTypes": [
            {
              "id": 10,
              "title": "Manual alarm",
              "icon": "ic_test_48",
              "isDefaultAlarm": true
            }
          ]
        },
        {
          "id": 3,
          "title": "Medical alarm",
          "sectionMask": 2,
          "sectionDefault": 5,
          "isDefaultDetector": false,
          "alarmTypes": [
            {
              "id": 10,
              "title": "Manual medical alarm",
              "icon": "ic_test_48",
              "isDefaultAlarm": true
            }
          ]
        }
      ]
    },
    {
      "id": 8,
      "title": "Keyfob",
      "subTitle": "Alarm buttons without channel control Astra RIM-RC",
      "img": "astra_rpdk",
      "icon": "",
      "detectorTypes": [
        {
          "id": 2,
          "title": "Alarm annunciation",
          "sectionMask": 2,
          "sectionDefault": 2,
          "isDefaultDetector": true,
          "alarmTypes": [
            {
              "id": 10,
              "title": "Manual alarm",
              "icon": "ic_test_48",
              "isDefaultAlarm": true
            }
          ]
        },
        {
          "id": 3,
          "title": "Medical alarm",
          "sectionMask": 2,
          "sectionDefault": 5,
          "isDefaultDetector": false,
          "alarmTypes": [
            {
              "id": 10,
              "title": "Manual medical alarm",
              "icon": "ic_test_48",
              "isDefaultAlarm": true
            }
          ]
        }
      ]
    },
    {
      "id": 10,
      "title": "Glass break sensor",
      "subTitle": "AC - glass break Astra 6131",
      "img": "astra_6131",
      "icon": "ic_astra_6131",
      "detectorTypes": [
        {
          "id": 4,
          "title": "Automatic burglar alarm",
          "sectionMask": 3,
          "sectionDefault": 1,
          "isDefaultDetector": true,
          "alarmTypes": [
            {
              "id": 16,
              "title": "Breaking",
              "icon": "ic_test_48",
              "isDefaultAlarm": false
            },
            {
              "id": 35,
              "title": "Door breaking",
              "icon": "ic_test_48",
              "isDefaultAlarm": false
            },
            {
              "id": 36,
              "title": "Glass breaking",
              "icon": "ic_test_48",
              "isDefaultAlarm": true
            },
            {
              "id": 37,
              "title": "Safe burglary",
              "icon": "ic_test_48",
              "isDefaultAlarm": false
            }
          ]
        }
      ]
    },
    {
      "id": 11,
      "title": "Opening sensor",
      "subTitle": "Magnetic contact sensor Astra-3321",
      "img": "astra_3321",
      "icon": "ic_astra_3321",
      "detectorTypes": [
        {
          "id": 1,
          "title": "Fire alarm system",
          "sectionMask": 4,
          "sectionDefault": 3,
          "isDefaultDetector": false,
          "alarmTypes": [
            {
              "id": 1,
              "title": "General type fire",
              "icon": "ic_test_48",
              "isDefaultAlarm": false
            },
            {
              "id": 10,
              "title": "Manual fire alarm",
              "icon": "ic_test_48",
              "isDefaultAlarm": false
            },
            {
              "id": 20,
              "title": "Smoke",
              "icon": "ic_test_48",
              "isDefaultAlarm": true
            },
            {
              "id": 21,
              "title": "Fire",
              "icon": "ic_test_48",
              "isDefaultAlarm": false
            }
          ]
        },
        {
          "id": 2,
          "title": "Alarm annunciation",
          "sectionMask": 2,
          "sectionDefault": 2,
          "isDefaultDetector": false,
          "alarmTypes": [
            {
              "id": 1,
              "title": "General type pánic",
              "icon": "ic_test_48",
              "isDefaultAlarm": false
            },
            {
              "id": 10,
              "title": "Manual alarm",
              "icon": "ic_test_48",
              "isDefaultAlarm": true
            }
          ]
        },
        {
          "id": 3,
          "title": "Medical alarm",
          "sectionMask": 19,
          "sectionDefault": 5,
          "isDefaultDetector": false,
          "alarmTypes": [
            {
              "id": 1,
              "title": "Common type medical",
              "icon": "ic_test_48",
              "isDefaultAlarm": false
            },
            {
              "id": 10,
              "title": "Manual medical alarm",
              "icon": "ic_test_48",
              "isDefaultAlarm": false
            }
          ]
        },
        {
          "id": 4,
          "title": "Automatic burglar alarm",
          "sectionMask": 3,
          "sectionDefault": 1,
          "isDefaultDetector": true,
          "alarmTypes": [
            {
              "id": 1,
              "title": "General intrusion type",
              "icon": "ic_test_48",
              "isDefaultAlarm": false
            },
            {
              "id": 13,
              "title": "External",
              "icon": "ic_test_48",
              "isDefaultAlarm": false
            },
            {
              "id": 14,
              "title": "Internal",
              "icon": "ic_test_48",
              "isDefaultAlarm": false
            },
            {
              "id": 15,
              "title": "Input",
              "icon": "ic_test_48",
              "isDefaultAlarm": true
            },
            {
              "id": 16,
              "title": "Intrusion",
              "icon": "ic_test_48",
              "isDefaultAlarm": false
            },
            {
              "id": 17,
              "title": "Movement",
              "icon": "ic_test_48",
              "isDefaultAlarm": false
            },
            {
              "id": 32,
              "title": "Window opening",
              "icon": "ic_test_48",
              "isDefaultAlarm": false
            },
            {
              "id": 33,
              "title": "Door opening",
              "icon": "ic_test_48",
              "isDefaultAlarm": false
            },
            {
              "id": 34,
              "title": "Safe opening",
              "icon": "ic_test_48",
              "isDefaultAlarm": false
            },
            {
              "id": 35,
              "title": "Door breaking",
              "icon": "ic_test_48",
              "isDefaultAlarm": false
            },
            {
              "id": 36,
              "title": "Glass breaking",
              "icon": "ic_test_48",
              "isDefaultAlarm": false
            },
            {
              "id": 37,
              "title": "Safe burglary",
              "icon": "ic_test_48",
              "isDefaultAlarm": false
            },
            {
              "id": 38,
              "title": "Perimeter crossing",
              "icon": "ic_test_48",
              "isDefaultAlarm": false
            },
            {
              "id": 39,
              "title": "Movement on protected area",
              "icon": "ic_test_48",
              "isDefaultAlarm": false
            }
          ]
        },
        {
          "id": 5,
          "title": "Technological alarm",
          "sectionMask": 16,
          "sectionDefault": 5,
          "isDefaultDetector": false,
          "alarmTypes": [
            {
              "id": 1,
              "title": "Common technological type",
              "icon": "ic_test_48",
              "isDefaultAlarm": true
            },
            {
              "id": 10,
              "title": "Manual medical alarm",
              "icon": "ic_test_48",
              "isDefaultAlarm": false
            },
            {
              "id": 18,
              "title": "Overheat",
              "icon": "ic_test_48",
              "isDefaultAlarm": false
            },
            {
              "id": 19,
              "title": "Overcooling",
              "icon": "ic_test_48",
              "isDefaultAlarm": false
            },
            {
              "id": 20,
              "title": "Smoke",
              "icon": "ic_test_48",
              "isDefaultAlarm": false
            },
            {
              "id": 22,
              "title": "Gas leakage",
              "icon": "ic_test_48",
              "isDefaultAlarm": false
            },
            {
              "id": 23,
              "title": "Water leakage",
              "icon": "ic_test_48",
              "isDefaultAlarm": false
            },
            {
              "id": 25,
              "title": "Construction movement",
              "icon": "ic_test_48",
              "isDefaultAlarm": false
            }
          ]
        },
        {
          "id": 6,
          "title": "Telemetry equipment",
          "sectionMask": 16,
          "sectionDefault": 5,
          "isDefaultDetector": false,
          "alarmTypes": [
            {
              "id": 1,
              "title": "General telemetric type",
              "icon": "ic_test_48",
              "isDefaultAlarm": true
            },
            {
              "id": 7,
              "title": "Beyond controlled parameter",
              "icon": "ic_test_48",
              "isDefaultAlarm": false
            },
            {
              "id": 8,
              "title": "Exceeding controlled parameter",
              "icon": "ic_test_48",
              "isDefaultAlarm": false
            },
            {
              "id": 9,
              "title": "Controlled parameter reduction",
              "icon": "ic_test_48",
              "isDefaultAlarm": false
            },
            {
              "id": 10,
              "title": "Manual alarm",
              "icon": "ic_test_48",
              "isDefaultAlarm": false
            },
            {
              "id": 18,
              "title": "Temperature decrease",
              "icon": "ic_test_48",
              "isDefaultAlarm": false
            },
            {
              "id": 19,
              "title": "Temperature rising",
              "icon": "ic_test_48",
              "isDefaultAlarm": false
            },
            {
              "id": 20,
              "title": "Smoke",
              "icon": "ic_test_48",
              "isDefaultAlarm": false
            }
          ]
        }
      ]
    },
    {
      "id": 12,
      "title": "Motion sensor",
      "subTitle": "IR - motion detection sensor Astra 5131",
      "img": "astra_5131",
      "icon": "ic_astra_5131",
      "detectorTypes": [
        {
          "id": 4,
          "title": "Automatic burglar alarm",
          "sectionMask": 3,
          "sectionDefault": 1,
          "isDefaultDetector": true,
          "alarmTypes": [
            {
              "id": 13,
              "title": "External",
              "icon": "ic_test_48",
              "isDefaultAlarm": false
            },
            {
              "id": 14,
              "title": "Volume",
              "icon": "ic_test_48",
              "isDefaultAlarm": true
            },
            {
              "id": 15,
              "title": "Input",
              "icon": "ic_test_48",
              "isDefaultAlarm": false
            }
          ]
        }
      ]
    },
    {
      "id": 13,
      "title": "Smoke detector",
      "subTitle": "Fire smoke detector Astra 421",
      "img": "astra_421",
      "icon": "ic_astra_421",
      "detectorTypes": [
        {
          "id": 1,
          "title": "Fire alarm system",
          "sectionMask": 4,
          "sectionDefault": 3,
          "isDefaultDetector": true,
          "alarmTypes": [
            {
              "id": 20,
              "title": "Smoke",
              "icon": "ic_test_48",
              "isDefaultAlarm": true
            }
          ]
        }
      ]
    },
    {
      "id": 15,
      "title": "Keyboard",
      "subTitle": "Keyboard Astra-8121",
      "img": "astra_8121",
      "icon": "",
      "detectorTypes": [
          {
               "id": 11,
               "title": "Keyboard",
               "sectionMask": 0,
               "sectionDefault": 0,
               "isDefaultDetector": true,
               "alarmTypes": [
                   {
                       "id": 0,
                       "title": "Keyboard",
                       "icon": "ic_test_48",
                       "isDefaultAlarm": true
                   }
               ]
          }
      ]
    },
    {
      "id": 2331,
      "title": "Light and sound annunciator",
      "subTitle": "Light and sound annunciator Astra 2331",
      "img": "astra_2331",
      "icon": "ic_astra_2331",
      "detectorTypes": []
    },
    {
      "id": 8131,
      "title": "Keyboard",
      "subTitle": "Keyboard Astra-8131",
      "img": "astra_8131",
      "icon": "_astra_keypad",
      "detectorTypes": []
    },
    {
      "id": 8531,
      "title": "RFID reader",
      "subTitle": "RFID reader Astra-8531",
      "img": "astra_8531",
      "icon": "",
      "detectorTypes": []
    },
    {
      "id": 8231,
      "title": "Радиоканальное реле",
      "subTitle": "Radio channel relay Astra-8231",
      "img": "astra_8231",
      "icon": "ic_astra_8231",
      "detectorTypes": []
    },
    {
      "id": 8731,
      "title": "Smart socket",
      "subTitle": "Smart socket Astra-8731",
      "img": "astra_8731",
      "icon": "",
      "detectorTypes": []
    },
    {
      "id": 421,
      "title": "Smoke detector",
      "subTitle": "Fire smoke detector Astra 421 RF2",
      "img": "astra_421rk2",
      "icon": "",
      "detectorTypes": [
        {
          "id": 1,
          "title": "Fire alarm system",
          "sectionMask": 4,
          "sectionDefault": 3,
          "isDefaultDetector": true,
          "alarmTypes": [
            {
              "id": 20,
              "title": "Smoke",
              "icon": "ic_test_48",
              "isDefaultAlarm": true
            }
          ]
        }
      ]
    },
    {
      "id": 4511,
      "title": "Fire call point",
      "subTitle": "Manual fire detector Astra-4511",
      "img": "astra_4511",
      "icon": "",
      "detectorTypes": [
        {
          "id": 1,
          "title": "Fire alarm system",
          "sectionMask": 4,
          "sectionDefault": 3,
          "isDefaultDetector": true,
          "alarmTypes": [
            {
              "id": 20,
              "title": "Smoke",
              "icon": "ic_test_48",
              "isDefaultAlarm": true
            }
          ]
        }
      ]
    }
  ]
}
