<svg width="24" height="24" xmlns="http://www.w3.org/2000/svg">
 <!-- Created with Method Draw - http://github.com/duopixel/Method-Draw/ -->

 <g id="Layer_1">
  <title>Layer 1</title>
  <rect fill="#ffffff" stroke="#3abeff" stroke-width="null" stroke-dasharray="null" x="1.875" y="2" width="20" height="20" id="svg_2" rx="5"/>
  <g stroke="null" stroke-opacity="0" id="svg_8">
   <path stroke="#000000" fill="#3abeff" d="m10.10909,15.68268l-3.0653,-3.81634l-1.04382,1.29042l4.10912,5.11591l8.82101,-10.98227l-1.03647,-1.29042l-7.78454,9.6827z" id="svg_6"/>
  </g>
 </g>
</svg>